module github.com/falcosecurity/falcosidekick

go 1.20

require (
	cloud.google.com/go/functions v1.15.3
	cloud.google.com/go/pubsub v1.33.0
	cloud.google.com/go/storage v1.35.1
	github.com/Azure/azure-event-hubs-go/v3 v3.6.1
	github.com/DataDog/datadog-go v4.8.3+incompatible
	github.com/PagerDuty/go-pagerduty v1.7.0
	github.com/alecthomas/kingpin/v2 v2.3.2
	github.com/aws/aws-sdk-go v1.47.9
	github.com/cloudevents/sdk-go/v2 v2.14.0
	github.com/eclipse/paho.mqtt.golang v1.4.3
	github.com/embano1/memlog v0.4.5
	github.com/emersion/go-sasl v0.0.0-20220912192320-0145f2c60ead
	github.com/emersion/go-smtp v0.18.1
	github.com/google/uuid v1.4.0
	github.com/googleapis/gax-go/v2 v2.12.0
	github.com/jackc/pgx/v5 v5.4.3
	github.com/nats-io/nats.go v1.31.0
	github.com/nats-io/stan.go v0.10.4
	github.com/prometheus/client_golang v1.17.0
	github.com/rabbitmq/amqp091-go v1.9.0
	github.com/redis/go-redis/v9 v9.2.1
	github.com/segmentio/kafka-go v0.4.44
	github.com/spf13/viper v1.17.0
	github.com/stretchr/testify v1.8.4
	github.com/wavefronthq/wavefront-sdk-go v0.15.0
	github.com/xitongsys/parquet-go v1.6.2
	github.com/xitongsys/parquet-go-source v0.0.0-20230919034749-0b16411e6349
	golang.org/x/oauth2 v0.13.0
	google.golang.org/api v0.150.0
	google.golang.org/genproto v0.0.0-20231016165738-49dd2c1f3d0b
	k8s.io/api v0.28.3
	k8s.io/apimachinery v0.28.3
	k8s.io/client-go v0.28.3
	sigs.k8s.io/wg-policy-prototypes v0.0.0-20230828153944-22764d64b0c3
)

require (
	cloud.google.com/go v0.110.8 // indirect
	cloud.google.com/go/compute v1.23.1 // indirect
	cloud.google.com/go/compute/metadata v0.2.3 // indirect
	cloud.google.com/go/iam v1.1.3 // indirect
	cloud.google.com/go/longrunning v0.5.2 // indirect
	github.com/Azure/azure-amqp-common-go/v4 v4.2.0 // indirect
	github.com/Azure/azure-sdk-for-go v68.0.0+incompatible // indirect
	github.com/Azure/go-amqp v1.0.2 // indirect
	github.com/Azure/go-autorest v14.2.0+incompatible // indirect
	github.com/Azure/go-autorest/autorest v0.11.29 // indirect
	github.com/Azure/go-autorest/autorest/adal v0.9.23 // indirect
	github.com/Azure/go-autorest/autorest/date v0.3.0 // indirect
	github.com/Azure/go-autorest/autorest/to v0.4.0 // indirect
	github.com/Azure/go-autorest/autorest/validation v0.3.1 // indirect
	github.com/Azure/go-autorest/logger v0.2.1 // indirect
	github.com/Azure/go-autorest/tracing v0.6.0 // indirect
	github.com/Microsoft/go-winio v0.6.1 // indirect
	github.com/alecthomas/units v0.0.0-20211218093645-b94a6e3cc137 // indirect
	github.com/apache/arrow/go/arrow v0.0.0-20211112161151-bc219186db40 // indirect
	github.com/apache/thrift v0.19.0 // indirect
	github.com/benbjohnson/clock v1.3.5 // indirect
	github.com/beorn7/perks v1.0.1 // indirect
	github.com/caio/go-tdigest/v4 v4.0.1 // indirect
	github.com/cespare/xxhash/v2 v2.2.0 // indirect
	github.com/davecgh/go-spew v1.1.2-0.20180830191138-d8f796af33cc // indirect
	github.com/devigned/tab v0.1.1 // indirect
	github.com/dgryski/go-rendezvous v0.0.0-20200823014737-9f7001d12a5f // indirect
	github.com/emicklei/go-restful/v3 v3.11.0 // indirect
	github.com/fsnotify/fsnotify v1.6.0 // indirect
	github.com/go-logr/logr v1.2.4 // indirect
	github.com/go-openapi/jsonpointer v0.20.0 // indirect
	github.com/go-openapi/jsonreference v0.20.2 // indirect
	github.com/go-openapi/swag v0.22.4 // indirect
	github.com/gogo/protobuf v1.3.2 // indirect
	github.com/golang-jwt/jwt/v4 v4.5.0 // indirect
	github.com/golang/groupcache v0.0.0-20210331224755-41bb18bfe9da // indirect
	github.com/golang/protobuf v1.5.3 // indirect
	github.com/golang/snappy v0.0.4 // indirect
	github.com/google/gnostic-models v0.6.8 // indirect
	github.com/google/go-querystring v1.1.0 // indirect
	github.com/google/gofuzz v1.2.0 // indirect
	github.com/google/s2a-go v0.1.7 // indirect
	github.com/googleapis/enterprise-certificate-proxy v0.3.2 // indirect
	github.com/gorilla/websocket v1.5.0 // indirect
	github.com/hashicorp/hcl v1.0.0 // indirect
	github.com/imdario/mergo v1.0.0 // indirect
	github.com/jackc/pgpassfile v1.0.0 // indirect
	github.com/jackc/pgservicefile v0.0.0-20221227161230-091c0ba34f0a // indirect
	github.com/jackc/puddle/v2 v2.2.1 // indirect
	github.com/jmespath/go-jmespath v0.4.0 // indirect
	github.com/joho/godotenv v1.4.0 // indirect
	github.com/josharian/intern v1.0.0 // indirect
	github.com/jpillora/backoff v1.0.0 // indirect
	github.com/json-iterator/go v1.1.12 // indirect
	github.com/klauspost/compress v1.17.0 // indirect
	github.com/magiconair/properties v1.8.7 // indirect
	github.com/mailru/easyjson v0.7.7 // indirect
	github.com/matttproud/golang_protobuf_extensions v1.0.4 // indirect
	github.com/mitchellh/mapstructure v1.5.0 // indirect
	github.com/modern-go/concurrent v0.0.0-20180306012644-bacd9c7ef1dd // indirect
	github.com/modern-go/reflect2 v1.0.2 // indirect
	github.com/munnerz/goautoneg v0.0.0-20191010083416-a7dc8b61c822 // indirect
	github.com/nats-io/nats-server/v2 v2.9.23 // indirect
	github.com/nats-io/nats-streaming-server v0.24.3 // indirect
	github.com/nats-io/nkeys v0.4.6 // indirect
	github.com/nats-io/nuid v1.0.1 // indirect
	github.com/pelletier/go-toml/v2 v2.1.0 // indirect
	github.com/pierrec/lz4/v4 v4.1.18 // indirect
	github.com/pmezard/go-difflib v1.0.1-0.20181226105442-5d4384ee4fb2 // indirect
	github.com/prometheus/client_model v0.5.0 // indirect
	github.com/prometheus/common v0.44.0 // indirect
	github.com/prometheus/procfs v0.12.0 // indirect
	github.com/sagikazarmark/locafero v0.3.0 // indirect
	github.com/sagikazarmark/slog-shim v0.1.0 // indirect
	github.com/sourcegraph/conc v0.3.0 // indirect
	github.com/spf13/afero v1.10.0 // indirect
	github.com/spf13/cast v1.5.1 // indirect
	github.com/spf13/pflag v1.0.5 // indirect
	github.com/subosito/gotenv v1.6.0 // indirect
	github.com/xdg-go/pbkdf2 v1.0.0 // indirect
	github.com/xdg-go/scram v1.1.2 // indirect
	github.com/xdg-go/stringprep v1.0.4 // indirect
	github.com/xhit/go-str2duration/v2 v2.1.0 // indirect
	go.opencensus.io v0.24.0 // indirect
	go.uber.org/multierr v1.11.0 // indirect
	go.uber.org/zap v1.26.0 // indirect
	golang.org/x/crypto v0.14.0 // indirect
	golang.org/x/exp v0.0.0-20230905200255-921286631fa9 // indirect
	golang.org/x/mod v0.12.0 // indirect
	golang.org/x/net v0.17.0 // indirect
	golang.org/x/sync v0.5.0 // indirect
	golang.org/x/sys v0.13.0 // indirect
	golang.org/x/term v0.13.0 // indirect
	golang.org/x/text v0.13.0 // indirect
	golang.org/x/time v0.3.0 // indirect
	golang.org/x/tools v0.13.0 // indirect
	golang.org/x/xerrors v0.0.0-20220907171357-04be3eba64a2 // indirect
	google.golang.org/appengine v1.6.8 // indirect
	google.golang.org/genproto/googleapis/api v0.0.0-20231016165738-49dd2c1f3d0b // indirect
	google.golang.org/genproto/googleapis/rpc v0.0.0-20231030173426-d783a09b4405 // indirect
	google.golang.org/grpc v1.59.0 // indirect
	google.golang.org/protobuf v1.31.0 // indirect
	gopkg.in/inf.v0 v0.9.1 // indirect
	gopkg.in/ini.v1 v1.67.0 // indirect
	gopkg.in/yaml.v2 v2.4.0 // indirect
	gopkg.in/yaml.v3 v3.0.1 // indirect
	k8s.io/klog/v2 v2.100.1 // indirect
	k8s.io/kube-openapi v0.0.0-20230928205116-a78145627833 // indirect
	k8s.io/utils v0.0.0-20230726121419-3b25d923346b // indirect
	sigs.k8s.io/controller-runtime v0.16.2 // indirect
	sigs.k8s.io/json v0.0.0-20221116044647-bc3834ca7abd // indirect
	sigs.k8s.io/structured-merge-diff/v4 v4.3.0 // indirect
	sigs.k8s.io/yaml v1.3.0 // indirect
)

replace github.com/imdario/mergo => dario.cat/mergo v0.3.16
